digraph "src/parsers/PAT.h"
{
  edge [fontname="Helvetica",fontsize="10",labelfontname="Helvetica",labelfontsize="10"];
  node [fontname="Helvetica",fontsize="10",shape=record];
  Node4 [label="src/parsers/PAT.h",height=0.2,width=0.4,color="black", fillcolor="grey75", style="filled", fontcolor="black"];
  Node4 -> Node5 [dir="back",color="midnightblue",fontsize="10",style="solid",fontname="Helvetica"];
  Node5 [label="src/HPlayer.h",height=0.2,width=0.4,color="black", fillcolor="white", style="filled",URL="$HPlayer_8h.html"];
  Node5 -> Node6 [dir="back",color="midnightblue",fontsize="10",style="solid",fontname="Helvetica"];
  Node6 [label="src/App.c",height=0.2,width=0.4,color="black", fillcolor="white", style="filled",URL="$App_8c.html"];
  Node5 -> Node7 [dir="back",color="midnightblue",fontsize="10",style="solid",fontname="Helvetica"];
  Node7 [label="src/HPlayer.c",height=0.2,width=0.4,color="black", fillcolor="white", style="filled",URL="$HPlayer_8c.html"];
  Node4 -> Node8 [dir="back",color="midnightblue",fontsize="10",style="solid",fontname="Helvetica"];
  Node8 [label="src/parsers/PAT.c",height=0.2,width=0.4,color="black", fillcolor="white", style="filled",URL="$PAT_8c.html"];
}
